{
    "m_SGVersion": 3,
    "m_Type": "UnityEditor.ShaderGraph.GraphData",
    "m_ObjectId": "cf83fcd36cdf43cbb5aa0ca960046e58",
    "m_Properties": [
        {
            "m_Id": "46b0a885947243948e3a72a360ab181a"
        },
        {
            "m_Id": "c09fca6fa42742b8b902b8ac474bfcb7"
        },
        {
            "m_Id": "2b2752f9536244af9220c43bb42918b9"
        }
    ],
    "m_Keywords": [],
    "m_Dropdowns": [],
    "m_CategoryData": [
        {
            "m_Id": "9432c7e779124306baf9617984c37206"
        }
    ],
    "m_Nodes": [
        {
            "m_Id": "5e49d53f8d834d5a96d600ed1901e6a1"
        },
        {
            "m_Id": "ac2c5b14d45f44d18216541508410282"
        },
        {
            "m_Id": "891b30626dd0495ab1d8576640a17a9b"
        },
        {
            "m_Id": "cab90080567b4513993a2419765d6de0"
        },
        {
            "m_Id": "26cd8d8d81f249819d5da612e5d2dd19"
        },
        {
            "m_Id": "f09e99ce365a4662ad718b33b259d588"
        },
        {
            "m_Id": "d69a4539f0214f069eef001786801382"
        },
        {
            "m_Id": "ba5d725077ed473ba51802c26a8e5e00"
        },
        {
            "m_Id": "edd67453fd77441cbf3d65af527dc4ec"
        }
    ],
    "m_GroupDatas": [],
    "m_StickyNoteDatas": [],
    "m_Edges": [
        {
            "m_OutputSlot": {
                "m_Node": {
                    "m_Id": "26cd8d8d81f249819d5da612e5d2dd19"
                },
                "m_SlotId": 0
            },
            "m_InputSlot": {
                "m_Node": {
                    "m_Id": "f09e99ce365a4662ad718b33b259d588"
                },
                "m_SlotId": 1
            }
        },
        {
            "m_OutputSlot": {
                "m_Node": {
                    "m_Id": "ba5d725077ed473ba51802c26a8e5e00"
                },
                "m_SlotId": 0
            },
            "m_InputSlot": {
                "m_Node": {
                    "m_Id": "d69a4539f0214f069eef001786801382"
                },
                "m_SlotId": 2
            }
        },
        {
            "m_OutputSlot": {
                "m_Node": {
                    "m_Id": "d69a4539f0214f069eef001786801382"
                },
                "m_SlotId": 3
            },
            "m_InputSlot": {
                "m_Node": {
                    "m_Id": "f09e99ce365a4662ad718b33b259d588"
                },
                "m_SlotId": 2
            }
        },
        {
            "m_OutputSlot": {
                "m_Node": {
                    "m_Id": "edd67453fd77441cbf3d65af527dc4ec"
                },
                "m_SlotId": 0
            },
            "m_InputSlot": {
                "m_Node": {
                    "m_Id": "d69a4539f0214f069eef001786801382"
                },
                "m_SlotId": 1
            }
        },
        {
            "m_OutputSlot": {
                "m_Node": {
                    "m_Id": "f09e99ce365a4662ad718b33b259d588"
                },
                "m_SlotId": 0
            },
            "m_InputSlot": {
                "m_Node": {
                    "m_Id": "5e49d53f8d834d5a96d600ed1901e6a1"
                },
                "m_SlotId": 0
            }
        },
        {
            "m_OutputSlot": {
                "m_Node": {
                    "m_Id": "f09e99ce365a4662ad718b33b259d588"
                },
                "m_SlotId": 7
            },
            "m_InputSlot": {
                "m_Node": {
                    "m_Id": "891b30626dd0495ab1d8576640a17a9b"
                },
                "m_SlotId": 0
            }
        }
    ],
    "m_VertexContext": {
        "m_Position": {
            "x": 0.0,
            "y": 0.0
        },
        "m_Blocks": []
    },
    "m_FragmentContext": {
        "m_Position": {
            "x": 0.0,
            "y": 200.0
        },
        "m_Blocks": [
            {
                "m_Id": "5e49d53f8d834d5a96d600ed1901e6a1"
            },
            {
                "m_Id": "ac2c5b14d45f44d18216541508410282"
            },
            {
                "m_Id": "891b30626dd0495ab1d8576640a17a9b"
            },
            {
                "m_Id": "cab90080567b4513993a2419765d6de0"
            }
        ]
    },
    "m_PreviewData": {
        "serializedMesh": {
            "m_SerializedMesh": "{\"mesh\":{\"instanceID\":0}}",
            "m_Guid": ""
        },
        "preventRotation": false
    },
    "m_Path": "Shader Graphs",
    "m_GraphPrecision": 1,
    "m_PreviewMode": 2,
    "m_OutputNode": {
        "m_Id": ""
    },
    "m_ActiveTargets": [
        {
            "m_Id": "465a9169e20b41799e9c9b0c190a84e4"
        }
    ]
}

{
    "m_SGVersion": 0,
    "m_Type": "UnityEditor.ShaderGraph.ColorRGBMaterialSlot",
    "m_ObjectId": "061a1fc9ee264169be36a4498c9d3f0a",
    "m_Id": 0,
    "m_DisplayName": "Emission",
    "m_SlotType": 0,
    "m_Hidden": false,
    "m_ShaderOutputName": "Emission",
    "m_StageCapability": 2,
    "m_Value": {
        "x": 0.0,
        "y": 0.0,
        "z": 0.0
    },
    "m_DefaultValue": {
        "x": 0.0,
        "y": 0.0,
        "z": 0.0
    },
    "m_Labels": [],
    "m_ColorMode": 1,
    "m_DefaultColor": {
        "r": 0.0,
        "g": 0.0,
        "b": 0.0,
        "a": 1.0
    }
}

{
    "m_SGVersion": 0,
    "m_Type": "UnityEditor.ShaderGraph.Vector1MaterialSlot",
    "m_ObjectId": "07fda51cbdc843aca8c153808552df29",
    "m_Id": 7,
    "m_DisplayName": "A",
    "m_SlotType": 1,
    "m_Hidden": false,
    "m_ShaderOutputName": "A",
    "m_StageCapability": 2,
    "m_Value": 0.0,
    "m_DefaultValue": 0.0,
    "m_Labels": []
}

{
    "m_SGVersion": 0,
    "m_Type": "UnityEditor.ShaderGraph.UVMaterialSlot",
    "m_ObjectId": "1629e75b9ab04929a9323a8cb76f6ae9",
    "m_Id": 2,
    "m_DisplayName": "UV",
    "m_SlotType": 0,
    "m_Hidden": false,
    "m_ShaderOutputName": "UV",
    "m_StageCapability": 3,
    "m_Value": {
        "x": 0.0,
        "y": 0.0
    },
    "m_DefaultValue": {
        "x": 0.0,
        "y": 0.0
    },
    "m_Labels": [],
    "m_Channel": 0
}

{
    "m_SGVersion": 0,
    "m_Type": "UnityEditor.ShaderGraph.UVMaterialSlot",
    "m_ObjectId": "1f41aedd9afd4cd7bae4020437e5c3aa",
    "m_Id": 0,
    "m_DisplayName": "UV",
    "m_SlotType": 0,
    "m_Hidden": false,
    "m_ShaderOutputName": "UV",
    "m_StageCapability": 3,
    "m_Value": {
        "x": 0.0,
        "y": 0.0
    },
    "m_DefaultValue": {
        "x": 0.0,
        "y": 0.0
    },
    "m_Labels": [],
    "m_Channel": 0
}

{
    "m_SGVersion": 0,
    "m_Type": "UnityEditor.ShaderGraph.Vector1MaterialSlot",
    "m_ObjectId": "2636708e5fe6462e9b56b07613ee6aa0",
    "m_Id": 0,
    "m_DisplayName": "Alpha",
    "m_SlotType": 0,
    "m_Hidden": false,
    "m_ShaderOutputName": "Alpha",
    "m_StageCapability": 2,
    "m_Value": 1.0,
    "m_DefaultValue": 1.0,
    "m_Labels": []
}

{
    "m_SGVersion": 0,
    "m_Type": "UnityEditor.ShaderGraph.PropertyNode",
    "m_ObjectId": "26cd8d8d81f249819d5da612e5d2dd19",
    "m_Group": {
        "m_Id": ""
    },
    "m_Name": "Property",
    "m_DrawState": {
        "m_Expanded": true,
        "m_Position": {
            "serializedVersion": "2",
            "x": -516.0,
            "y": 398.9999694824219,
            "width": 127.00003051757813,
            "height": 34.0
        }
    },
    "m_Slots": [
        {
            "m_Id": "8c2977f3a6f2456ea5d6658233dcb9b9"
        }
    ],
    "synonyms": [],
    "m_Precision": 0,
    "m_PreviewExpanded": true,
    "m_DismissedVersion": 0,
    "m_PreviewMode": 0,
    "m_CustomColors": {
        "m_SerializableColors": []
    },
    "m_Property": {
        "m_Id": "46b0a885947243948e3a72a360ab181a"
    }
}

{
    "m_SGVersion": 1,
    "m_Type": "UnityEditor.ShaderGraph.Internal.Vector2ShaderProperty",
    "m_ObjectId": "2b2752f9536244af9220c43bb42918b9",
    "m_Guid": {
        "m_GuidSerialized": "5f65dbcb-b77f-42ce-8e70-89610d300135"
    },
    "m_Name": "Offset",
    "m_DefaultRefNameVersion": 1,
    "m_RefNameGeneratedByDisplayName": "Offset",
    "m_DefaultReferenceName": "_Offset",
    "m_OverrideReferenceName": "",
    "m_GeneratePropertyBlock": true,
    "m_UseCustomSlotLabel": false,
    "m_CustomSlotLabel": "",
    "m_DismissedVersion": 0,
    "m_Precision": 0,
    "overrideHLSLDeclaration": false,
    "hlslDeclarationOverride": 0,
    "m_Hidden": false,
    "m_Value": {
        "x": 0.0,
        "y": 0.0,
        "z": 0.0,
        "w": 0.0
    }
}

{
    "m_SGVersion": 0,
    "m_Type": "UnityEditor.Rendering.Canvas.ShaderGraph.CanvasData",
    "m_ObjectId": "2b709a793a354ac6ac959016f084378a",
    "m_Version": 0,
    "m_AlphaClip": false
}

{
    "m_SGVersion": 0,
    "m_Type": "UnityEditor.ShaderGraph.Vector1MaterialSlot",
    "m_ObjectId": "2ce7d5a9fa22415b92f923a621e9c8d9",
    "m_Id": 5,
    "m_DisplayName": "G",
    "m_SlotType": 1,
    "m_Hidden": false,
    "m_ShaderOutputName": "G",
    "m_StageCapability": 2,
    "m_Value": 0.0,
    "m_DefaultValue": 0.0,
    "m_Labels": []
}

{
    "m_SGVersion": 0,
    "m_Type": "UnityEditor.ShaderGraph.Texture2DInputMaterialSlot",
    "m_ObjectId": "35664e46b36e4be1ae008a2c16df4b59",
    "m_Id": 1,
    "m_DisplayName": "Texture",
    "m_SlotType": 0,
    "m_Hidden": false,
    "m_ShaderOutputName": "Texture",
    "m_StageCapability": 3,
    "m_BareResource": false,
    "m_Texture": {
        "m_SerializedTexture": "{\"texture\":{\"instanceID\":0}}",
        "m_Guid": ""
    },
    "m_DefaultType": 0
}

{
    "m_SGVersion": 1,
    "m_Type": "UnityEditor.Rendering.Universal.ShaderGraph.UniversalTarget",
    "m_ObjectId": "465a9169e20b41799e9c9b0c190a84e4",
    "m_Datas": [
        {
            "m_Id": "2b709a793a354ac6ac959016f084378a"
        }
    ],
    "m_ActiveSubTarget": {
        "m_Id": "bfff725bbb374acc94ebe4a6edd9e16e"
    },
    "m_AllowMaterialOverride": false,
    "m_SurfaceType": 0,
    "m_ZTestMode": 4,
    "m_ZWriteControl": 0,
    "m_AlphaMode": 0,
    "m_RenderFace": 2,
    "m_AlphaClip": false,
    "m_CastShadows": true,
    "m_ReceiveShadows": true,
    "m_AdditionalMotionVectorMode": 0,
    "m_AlembicMotionVectors": false,
    "m_SupportsLODCrossFade": false,
    "m_CustomEditorGUI": "",
    "m_SupportVFX": false
}

{
    "m_SGVersion": 0,
    "m_Type": "UnityEditor.ShaderGraph.Internal.Texture2DShaderProperty",
    "m_ObjectId": "46b0a885947243948e3a72a360ab181a",
    "m_Guid": {
        "m_GuidSerialized": "1cd30a02-d1f6-4c28-ad18-3cfa0e103468"
    },
    "m_Name": "MainTex",
    "m_DefaultRefNameVersion": 1,
    "m_RefNameGeneratedByDisplayName": "MainTex",
    "m_DefaultReferenceName": "_MainTex",
    "m_OverrideReferenceName": "",
    "m_GeneratePropertyBlock": true,
    "m_UseCustomSlotLabel": false,
    "m_CustomSlotLabel": "",
    "m_DismissedVersion": 0,
    "m_Precision": 0,
    "overrideHLSLDeclaration": false,
    "hlslDeclarationOverride": 0,
    "m_Hidden": false,
    "m_Value": {
        "m_SerializedTexture": "{\"texture\":{\"instanceID\":0}}",
        "m_Guid": ""
    },
    "isMainTexture": false,
    "useTilingAndOffset": false,
    "m_Modifiable": true,
    "m_DefaultType": 0
}

{
    "m_SGVersion": 0,
    "m_Type": "UnityEditor.ShaderGraph.Vector2MaterialSlot",
    "m_ObjectId": "579f28141bf04c268f94912e9f29f0d9",
    "m_Id": 3,
    "m_DisplayName": "Out",
    "m_SlotType": 1,
    "m_Hidden": false,
    "m_ShaderOutputName": "Out",
    "m_StageCapability": 3,
    "m_Value": {
        "x": 0.0,
        "y": 0.0
    },
    "m_DefaultValue": {
        "x": 0.0,
        "y": 0.0
    },
    "m_Labels": []
}

{
    "m_SGVersion": 0,
    "m_Type": "UnityEditor.ShaderGraph.BlockNode",
    "m_ObjectId": "5e49d53f8d834d5a96d600ed1901e6a1",
    "m_Group": {
        "m_Id": ""
    },
    "m_Name": "SurfaceDescription.BaseColor",
    "m_DrawState": {
        "m_Expanded": true,
        "m_Position": {
            "serializedVersion": "2",
            "x": 0.0,
            "y": 0.0,
            "width": 0.0,
            "height": 0.0
        }
    },
    "m_Slots": [
        {
            "m_Id": "7ffa9e6488ac45babc5b8005d863c52c"
        }
    ],
    "synonyms": [],
    "m_Precision": 0,
    "m_PreviewExpanded": true,
    "m_DismissedVersion": 0,
    "m_PreviewMode": 0,
    "m_CustomColors": {
        "m_SerializableColors": []
    },
    "m_SerializedDescriptor": "SurfaceDescription.BaseColor"
}

{
    "m_SGVersion": 0,
    "m_Type": "UnityEditor.ShaderGraph.Vector2MaterialSlot",
    "m_ObjectId": "6968ef6fe739425c95a7146ad4bd3450",
    "m_Id": 1,
    "m_DisplayName": "Tiling",
    "m_SlotType": 0,
    "m_Hidden": false,
    "m_ShaderOutputName": "Tiling",
    "m_StageCapability": 3,
    "m_Value": {
        "x": 1.0,
        "y": 1.0
    },
    "m_DefaultValue": {
        "x": 0.0,
        "y": 0.0
    },
    "m_Labels": []
}

{
    "m_SGVersion": 0,
    "m_Type": "UnityEditor.ShaderGraph.ColorRGBMaterialSlot",
    "m_ObjectId": "7ffa9e6488ac45babc5b8005d863c52c",
    "m_Id": 0,
    "m_DisplayName": "Base Color",
    "m_SlotType": 0,
    "m_Hidden": false,
    "m_ShaderOutputName": "BaseColor",
    "m_StageCapability": 2,
    "m_Value": {
        "x": 0.5,
        "y": 0.5,
        "z": 0.5
    },
    "m_DefaultValue": {
        "x": 0.0,
        "y": 0.0,
        "z": 0.0
    },
    "m_Labels": [],
    "m_ColorMode": 0,
    "m_DefaultColor": {
        "r": 0.5,
        "g": 0.5,
        "b": 0.5,
        "a": 1.0
    }
}

{
    "m_SGVersion": 0,
    "m_Type": "UnityEditor.ShaderGraph.BlockNode",
    "m_ObjectId": "891b30626dd0495ab1d8576640a17a9b",
    "m_Group": {
        "m_Id": ""
    },
    "m_Name": "SurfaceDescription.Alpha",
    "m_DrawState": {
        "m_Expanded": true,
        "m_Position": {
            "serializedVersion": "2",
            "x": 0.0,
            "y": 0.0,
            "width": 0.0,
            "height": 0.0
        }
    },
    "m_Slots": [
        {
            "m_Id": "2636708e5fe6462e9b56b07613ee6aa0"
        }
    ],
    "synonyms": [],
    "m_Precision": 0,
    "m_PreviewExpanded": true,
    "m_DismissedVersion": 0,
    "m_PreviewMode": 0,
    "m_CustomColors": {
        "m_SerializableColors": []
    },
    "m_SerializedDescriptor": "SurfaceDescription.Alpha"
}

{
    "m_SGVersion": 0,
    "m_Type": "UnityEditor.ShaderGraph.Texture2DMaterialSlot",
    "m_ObjectId": "8c2977f3a6f2456ea5d6658233dcb9b9",
    "m_Id": 0,
    "m_DisplayName": "MainTex",
    "m_SlotType": 1,
    "m_Hidden": false,
    "m_ShaderOutputName": "Out",
    "m_StageCapability": 3,
    "m_BareResource": false
}

{
    "m_SGVersion": 0,
    "m_Type": "UnityEditor.ShaderGraph.Vector2MaterialSlot",
    "m_ObjectId": "8d29a5cf01274297ad33b9afb3c4a21f",
    "m_Id": 0,
    "m_DisplayName": "Offset",
    "m_SlotType": 1,
    "m_Hidden": false,
    "m_ShaderOutputName": "Out",
    "m_StageCapability": 3,
    "m_Value": {
        "x": 0.0,
        "y": 0.0
    },
    "m_DefaultValue": {
        "x": 0.0,
        "y": 0.0
    },
    "m_Labels": []
}

{
    "m_SGVersion": 0,
    "m_Type": "UnityEditor.ShaderGraph.CategoryData",
    "m_ObjectId": "9432c7e779124306baf9617984c37206",
    "m_Name": "",
    "m_ChildObjectList": [
        {
            "m_Id": "46b0a885947243948e3a72a360ab181a"
        },
        {
            "m_Id": "c09fca6fa42742b8b902b8ac474bfcb7"
        },
        {
            "m_Id": "2b2752f9536244af9220c43bb42918b9"
        }
    ]
}

{
    "m_SGVersion": 0,
    "m_Type": "UnityEditor.ShaderGraph.Vector2MaterialSlot",
    "m_ObjectId": "99a531d8a6bf4c54bdeabbda6dee79a1",
    "m_Id": 2,
    "m_DisplayName": "Offset",
    "m_SlotType": 0,
    "m_Hidden": false,
    "m_ShaderOutputName": "Offset",
    "m_StageCapability": 3,
    "m_Value": {
        "x": 0.0,
        "y": 0.0
    },
    "m_DefaultValue": {
        "x": 0.0,
        "y": 0.0
    },
    "m_Labels": []
}

{
    "m_SGVersion": 0,
    "m_Type": "UnityEditor.ShaderGraph.Vector2MaterialSlot",
    "m_ObjectId": "a7d3ad83eb1045e6ba386e5abdd49f24",
    "m_Id": 0,
    "m_DisplayName": "Tiling",
    "m_SlotType": 1,
    "m_Hidden": false,
    "m_ShaderOutputName": "Out",
    "m_StageCapability": 3,
    "m_Value": {
        "x": 0.0,
        "y": 0.0
    },
    "m_DefaultValue": {
        "x": 0.0,
        "y": 0.0
    },
    "m_Labels": []
}

{
    "m_SGVersion": 0,
    "m_Type": "UnityEditor.ShaderGraph.BlockNode",
    "m_ObjectId": "ac2c5b14d45f44d18216541508410282",
    "m_Group": {
        "m_Id": ""
    },
    "m_Name": "SurfaceDescription.Emission",
    "m_DrawState": {
        "m_Expanded": true,
        "m_Position": {
            "serializedVersion": "2",
            "x": 0.0,
            "y": 0.0,
            "width": 0.0,
            "height": 0.0
        }
    },
    "m_Slots": [
        {
            "m_Id": "061a1fc9ee264169be36a4498c9d3f0a"
        }
    ],
    "synonyms": [],
    "m_Precision": 0,
    "m_PreviewExpanded": true,
    "m_DismissedVersion": 0,
    "m_PreviewMode": 0,
    "m_CustomColors": {
        "m_SerializableColors": []
    },
    "m_SerializedDescriptor": "SurfaceDescription.Emission"
}

{
    "m_SGVersion": 0,
    "m_Type": "UnityEditor.ShaderGraph.PropertyNode",
    "m_ObjectId": "ba5d725077ed473ba51802c26a8e5e00",
    "m_Group": {
        "m_Id": ""
    },
    "m_Name": "Property",
    "m_DrawState": {
        "m_Expanded": true,
        "m_Position": {
            "serializedVersion": "2",
            "x": -821.0,
            "y": 836.9999389648438,
            "width": 109.0,
            "height": 34.00006103515625
        }
    },
    "m_Slots": [
        {
            "m_Id": "8d29a5cf01274297ad33b9afb3c4a21f"
        }
    ],
    "synonyms": [],
    "m_Precision": 0,
    "m_PreviewExpanded": true,
    "m_DismissedVersion": 0,
    "m_PreviewMode": 0,
    "m_CustomColors": {
        "m_SerializableColors": []
    },
    "m_Property": {
        "m_Id": "2b2752f9536244af9220c43bb42918b9"
    }
}

{
    "m_SGVersion": 0,
    "m_Type": "UnityEditor.Rendering.Universal.ShaderGraph.UniversalCanvasSubTarget",
    "m_ObjectId": "bfff725bbb374acc94ebe4a6edd9e16e"
}

{
    "m_SGVersion": 1,
    "m_Type": "UnityEditor.ShaderGraph.Internal.Vector2ShaderProperty",
    "m_ObjectId": "c09fca6fa42742b8b902b8ac474bfcb7",
    "m_Guid": {
        "m_GuidSerialized": "a29bcb87-804c-4716-be63-28a7935ec039"
    },
    "m_Name": "Tiling",
    "m_DefaultRefNameVersion": 1,
    "m_RefNameGeneratedByDisplayName": "Tiling",
    "m_DefaultReferenceName": "_Tiling",
    "m_OverrideReferenceName": "",
    "m_GeneratePropertyBlock": true,
    "m_UseCustomSlotLabel": false,
    "m_CustomSlotLabel": "",
    "m_DismissedVersion": 0,
    "m_Precision": 0,
    "overrideHLSLDeclaration": false,
    "hlslDeclarationOverride": 0,
    "m_Hidden": false,
    "m_Value": {
        "x": 1.0,
        "y": 1.0,
        "z": 0.0,
        "w": 0.0
    }
}

{
    "m_SGVersion": 0,
    "m_Type": "UnityEditor.ShaderGraph.Vector1MaterialSlot",
    "m_ObjectId": "c1c2363293664ad680fd0fd88520bd17",
    "m_Id": 0,
    "m_DisplayName": "Alpha Clip Threshold",
    "m_SlotType": 0,
    "m_Hidden": false,
    "m_ShaderOutputName": "AlphaClipThreshold",
    "m_StageCapability": 2,
    "m_Value": 0.5,
    "m_DefaultValue": 0.5,
    "m_Labels": []
}

{
    "m_SGVersion": 0,
    "m_Type": "UnityEditor.ShaderGraph.Vector4MaterialSlot",
    "m_ObjectId": "c2e9bf5f0a554e2ea454d743b13499f6",
    "m_Id": 0,
    "m_DisplayName": "RGBA",
    "m_SlotType": 1,
    "m_Hidden": false,
    "m_ShaderOutputName": "RGBA",
    "m_StageCapability": 2,
    "m_Value": {
        "x": 0.0,
        "y": 0.0,
        "z": 0.0,
        "w": 0.0
    },
    "m_DefaultValue": {
        "x": 0.0,
        "y": 0.0,
        "z": 0.0,
        "w": 0.0
    },
    "m_Labels": []
}

{
    "m_SGVersion": 0,
    "m_Type": "UnityEditor.ShaderGraph.BlockNode",
    "m_ObjectId": "cab90080567b4513993a2419765d6de0",
    "m_Group": {
        "m_Id": ""
    },
    "m_Name": "SurfaceDescription.AlphaClipThreshold",
    "m_DrawState": {
        "m_Expanded": true,
        "m_Position": {
            "serializedVersion": "2",
            "x": 0.0,
            "y": 0.0,
            "width": 0.0,
            "height": 0.0
        }
    },
    "m_Slots": [
        {
            "m_Id": "c1c2363293664ad680fd0fd88520bd17"
        }
    ],
    "synonyms": [],
    "m_Precision": 0,
    "m_PreviewExpanded": true,
    "m_DismissedVersion": 0,
    "m_PreviewMode": 0,
    "m_CustomColors": {
        "m_SerializableColors": []
    },
    "m_SerializedDescriptor": "SurfaceDescription.AlphaClipThreshold"
}

{
    "m_SGVersion": 0,
    "m_Type": "UnityEditor.ShaderGraph.TilingAndOffsetNode",
    "m_ObjectId": "d69a4539f0214f069eef001786801382",
    "m_Group": {
        "m_Id": ""
    },
    "m_Name": "Tiling And Offset",
    "m_DrawState": {
        "m_Expanded": true,
        "m_Position": {
            "serializedVersion": "2",
            "x": -667.6641235351563,
            "y": 615.954345703125,
            "width": 0.0,
            "height": 0.0
        }
    },
    "m_Slots": [
        {
            "m_Id": "1f41aedd9afd4cd7bae4020437e5c3aa"
        },
        {
            "m_Id": "6968ef6fe739425c95a7146ad4bd3450"
        },
        {
            "m_Id": "99a531d8a6bf4c54bdeabbda6dee79a1"
        },
        {
            "m_Id": "579f28141bf04c268f94912e9f29f0d9"
        }
    ],
    "synonyms": [
        "pan",
        "scale"
    ],
    "m_Precision": 0,
    "m_PreviewExpanded": true,
    "m_DismissedVersion": 0,
    "m_PreviewMode": 0,
    "m_CustomColors": {
        "m_SerializableColors": []
    }
}

{
    "m_SGVersion": 0,
    "m_Type": "UnityEditor.ShaderGraph.SamplerStateMaterialSlot",
    "m_ObjectId": "d9b72f41f1414c89bb4168841d26d38c",
    "m_Id": 3,
    "m_DisplayName": "Sampler",
    "m_SlotType": 0,
    "m_Hidden": false,
    "m_ShaderOutputName": "Sampler",
    "m_StageCapability": 3,
    "m_BareResource": false
}

{
    "m_SGVersion": 0,
    "m_Type": "UnityEditor.ShaderGraph.PropertyNode",
    "m_ObjectId": "edd67453fd77441cbf3d65af527dc4ec",
    "m_Group": {
        "m_Id": ""
    },
    "m_Name": "Property",
    "m_DrawState": {
        "m_Expanded": true,
        "m_Position": {
            "serializedVersion": "2",
            "x": -886.6701049804688,
            "y": 748.2705078125,
            "width": 0.0,
            "height": 0.0
        }
    },
    "m_Slots": [
        {
            "m_Id": "a7d3ad83eb1045e6ba386e5abdd49f24"
        }
    ],
    "synonyms": [],
    "m_Precision": 0,
    "m_PreviewExpanded": true,
    "m_DismissedVersion": 0,
    "m_PreviewMode": 0,
    "m_CustomColors": {
        "m_SerializableColors": []
    },
    "m_Property": {
        "m_Id": "c09fca6fa42742b8b902b8ac474bfcb7"
    }
}

{
    "m_SGVersion": 0,
    "m_Type": "UnityEditor.ShaderGraph.SampleTexture2DNode",
    "m_ObjectId": "f09e99ce365a4662ad718b33b259d588",
    "m_Group": {
        "m_Id": ""
    },
    "m_Name": "Sample Texture 2D",
    "m_DrawState": {
        "m_Expanded": true,
        "m_Position": {
            "serializedVersion": "2",
            "x": -404.9999694824219,
            "y": 436.0,
            "width": 207.99998474121095,
            "height": 435.0
        }
    },
    "m_Slots": [
        {
            "m_Id": "c2e9bf5f0a554e2ea454d743b13499f6"
        },
        {
            "m_Id": "ffd92cbb7f2d4e8ca993aa16e3e2d82f"
        },
        {
            "m_Id": "2ce7d5a9fa22415b92f923a621e9c8d9"
        },
        {
            "m_Id": "f68163e6536f487fab12ddb3d1bcbd27"
        },
        {
            "m_Id": "07fda51cbdc843aca8c153808552df29"
        },
        {
            "m_Id": "35664e46b36e4be1ae008a2c16df4b59"
        },
        {
            "m_Id": "1629e75b9ab04929a9323a8cb76f6ae9"
        },
        {
            "m_Id": "d9b72f41f1414c89bb4168841d26d38c"
        }
    ],
    "synonyms": [
        "tex2d"
    ],
    "m_Precision": 0,
    "m_PreviewExpanded": true,
    "m_DismissedVersion": 0,
    "m_PreviewMode": 0,
    "m_CustomColors": {
        "m_SerializableColors": []
    },
    "m_TextureType": 0,
    "m_NormalMapSpace": 0,
    "m_EnableGlobalMipBias": true,
    "m_MipSamplingMode": 0
}

{
    "m_SGVersion": 0,
    "m_Type": "UnityEditor.ShaderGraph.Vector1MaterialSlot",
    "m_ObjectId": "f68163e6536f487fab12ddb3d1bcbd27",
    "m_Id": 6,
    "m_DisplayName": "B",
    "m_SlotType": 1,
    "m_Hidden": false,
    "m_ShaderOutputName": "B",
    "m_StageCapability": 2,
    "m_Value": 0.0,
    "m_DefaultValue": 0.0,
    "m_Labels": []
}

{
    "m_SGVersion": 0,
    "m_Type": "UnityEditor.ShaderGraph.Vector1MaterialSlot",
    "m_ObjectId": "ffd92cbb7f2d4e8ca993aa16e3e2d82f",
    "m_Id": 4,
    "m_DisplayName": "R",
    "m_SlotType": 1,
    "m_Hidden": false,
    "m_ShaderOutputName": "R",
    "m_StageCapability": 2,
    "m_Value": 0.0,
    "m_DefaultValue": 0.0,
    "m_Labels": []
}

