%YAML 1.1
%TAG !u! tag:unity3d.com,2011:
--- !u!114 &11400000
MonoBehaviour:
  m_ObjectHideFlags: 0
  m_CorrespondingSourceObject: {fileID: 0}
  m_PrefabInstance: {fileID: 0}
  m_PrefabAsset: {fileID: 0}
  m_GameObject: {fileID: 0}
  m_Enabled: 1
  m_EditorHideFlags: 0
  m_Script: {fileID: 11500000, guid: 675a2129cca404c26843e20547bdbc60, type: 3}
  m_Name: OSKAR_Cube
  m_EditorClassIdentifier: 
  renderPrefab: {fileID: 104556870491103554, guid: e223b820373415a4f8646d267e8b3f4a,
    type: 3}
  defaultScale: 1
  controlOptions:
  - controlName: show
    controlType: 9
    defaultValue: 0
    additionalData: 'IN

      OUT

      PREV'
    visibleOnBaseElement: 1
    overrideControlSize: {x: 0, y: 0}
  - controlName: rotate
    controlType: 1
    defaultValue: 
    additionalData: 
    visibleOnBaseElement: 1
    overrideControlSize: {x: 0, y: 0}
  - controlName: blob
    controlType: 1
    defaultValue: true
    additionalData: 
    visibleOnBaseElement: 0
    overrideControlSize: {x: 0, y: 0}
  tumbnailImage: {fileID: 0}
